<?xml version="1.0" encoding="UTF-8"?>
<svg width="148px" height="148px" viewBox="0 0 148 148" version="1.1" xmlns="http://www.w3.org/2000/svg" xmlns:xlink="http://www.w3.org/1999/xlink">
    <!-- Generator: Sketch 59.1 (86144) - https://sketch.com -->
    <title>badge-google-play-grey-portrait</title>
    <desc>Created with Sketch.</desc>
    <g id="badge-google-play-grey-portrait" stroke="none" stroke-width="1" fill="none" fill-rule="evenodd">
        <g id="Google-Play">
            <rect id="Base" fill="#9E9F9E" x="0" y="0" width="148" height="148" rx="12"></rect>
            <g id="content" transform="translate(19.000000, 17.000000)" fill="#FFFFFF">
                <g id="Text" transform="translate(0.000000, 77.000000)">
                    <path d="M34.473617,5.27329787 C34.473617,6.58181505 34.0854294,7.62425144 33.3090426,8.4006383 C32.4366978,9.32532377 31.2895816,9.78765957 29.8676596,9.78765957 C28.5068017,9.78765957 27.3553239,9.31660046 26.4131915,8.37446809 C25.4710591,7.43233571 25,6.27213455 25,4.89382979 C25,3.51552502 25.4710591,2.35532386 26.4131915,1.41319149 C27.3553239,0.471059119 28.5068017,-1.77635684e-15 29.8676596,-1.77635684e-15 C30.556812,-1.77635684e-15 31.2066991,0.122126438 31.8173404,0.366382979 C32.4279818,0.610639519 32.9295725,0.955210541 33.3221277,1.40010638 L32.4585106,2.2637234 C32.1706369,1.91478549 31.7977151,1.64218183 31.339734,1.44590426 C30.881753,1.24962668 30.3910664,1.15148936 29.8676596,1.15148936 C28.8470162,1.15148936 27.9834078,1.5047837 27.2768085,2.21138298 C26.5789327,2.9267057 26.23,3.8208457 26.23,4.89382979 C26.23,5.96681388 26.5789327,6.86095387 27.2768085,7.5762766 C27.9834078,8.28287587 28.8470162,8.63617021 29.8676596,8.63617021 C30.8010685,8.63617021 31.5774437,8.3744707 32.1968085,7.85106383 C32.8161733,7.32765696 33.1738293,6.6079833 33.2697872,5.69202128 L29.8676596,5.69202128 L29.8676596,4.56670213 L34.4081915,4.56670213 C34.4518087,4.81095867 34.473617,5.04648823 34.473617,5.27329787 Z M41.4087234,0.209361702 L41.4087234,1.36085106 L37.1429787,1.36085106 L37.1429787,4.33117021 L40.99,4.33117021 L40.99,5.45648936 L37.1429787,5.45648936 L37.1429787,8.42680851 L41.4087234,8.42680851 L41.4087234,9.57829787 L35.9391489,9.57829787 L35.9391489,0.209361702 L41.4087234,0.209361702 Z M46.2240426,1.36085106 L46.2240426,9.57829787 L45.0202128,9.57829787 L45.0202128,1.36085106 L42.4031915,1.36085106 L42.4031915,0.209361702 L48.8410638,0.209361702 L48.8410638,1.36085106 L46.2240426,1.36085106 Z M54.1797872,9.57829787 L52.9759574,9.57829787 L52.9759574,0.209361702 L54.1797872,0.209361702 L54.1797872,9.57829787 Z M59.2568085,1.36085106 L59.2568085,9.57829787 L58.0529787,9.57829787 L58.0529787,1.36085106 L55.4359574,1.36085106 L55.4359574,0.209361702 L61.8738298,0.209361702 L61.8738298,1.36085106 L59.2568085,1.36085106 Z M75.181383,4.89382979 C75.181383,6.280858 74.7190472,7.44105916 73.7943617,8.37446809 C72.8609528,9.31660046 71.7181982,9.78765957 70.3660638,9.78765957 C69.005206,9.78765957 67.8624514,9.31660046 66.937766,8.37446809 C66.0130805,7.44105916 65.5507447,6.280858 65.5507447,4.89382979 C65.5507447,3.50680158 66.0130805,2.34660041 66.937766,1.41319149 C67.8624514,0.471059119 69.005206,-1.77635684e-15 70.3660638,-1.77635684e-15 C71.7269217,-1.77635684e-15 72.8696762,0.475420778 73.7943617,1.4262766 C74.7190472,2.35968552 75.181383,3.51552502 75.181383,4.89382979 Z M66.7807447,4.89382979 C66.7807447,5.97553732 67.120954,6.86967732 67.801383,7.5762766 C68.4905354,8.28287587 69.3454204,8.63617021 70.3660638,8.63617021 C71.3867072,8.63617021 72.2372306,8.28287587 72.9176596,7.5762766 C73.606812,6.87840077 73.951383,5.98426077 73.951383,4.89382979 C73.951383,3.8033988 73.606812,2.90925881 72.9176596,2.21138298 C72.2372306,1.5047837 71.3867072,1.15148936 70.3660638,1.15148936 C69.3454204,1.15148936 68.4905354,1.5047837 67.801383,2.21138298 C67.120954,2.91798226 66.7807447,3.81212225 66.7807447,4.89382979 Z M77.8114894,9.57829787 L76.6076596,9.57829787 L76.6076596,0.209361702 L78.0731915,0.209361702 L82.6268085,7.49776596 L82.6791489,7.49776596 L82.6268085,5.69202128 L82.6268085,0.209361702 L83.8306383,0.209361702 L83.8306383,9.57829787 L82.5744681,9.57829787 L77.8114894,1.93659574 L77.7591489,1.93659574 L77.8114894,3.74234043 L77.8114894,9.57829787 Z" id="GETITON" fill-rule="nonzero"></path>
                    <path d="M49.4791894,26.6319657 C49.9294429,26.8280142 50.298783,27.1625065 50.6567015,27.4969988 L50.6682606,26.5397157 L53.0001669,26.5511267 L53.0001669,36.7239261 C52.9886078,38.2578062 52.5961496,39.8840738 51.4878542,41.0028975 C50.2756648,42.2369307 48.4171303,42.6176167 46.7431282,42.363826 C44.9538106,42.0986244 43.3952617,40.7953006 42.7026803,39.1459361 C43.3952617,38.8114439 44.1226579,38.5462422 44.8383574,38.2348468 C45.2423747,39.1805815 46.0621059,39.9878723 47.0894877,40.1725098 C48.1168695,40.3570099 49.3059408,40.1032192 49.9755416,39.2497346 C50.6912412,38.3731531 50.6912412,37.1737653 50.6567015,36.1011354 C50.125672,36.6201277 49.513729,37.0813778 48.7749113,37.2544669 C47.1702637,37.7043061 45.4040642,37.1506684 44.1687566,36.06649 C42.9220276,34.9823116 42.1832099,33.3099878 42.2524267,31.6490748 C42.287104,29.7690166 43.349163,27.9582489 44.9538106,26.977869 C46.2814532,26.1474813 48.0476527,25.9167874 49.4791894,26.6319657 Z M102.173573,26.2161627 L105.166573,33.4321627 L105.207573,33.4321627 L108.118573,26.2161627 L110.168573,26.2161627 L103.875073,40.6891627 L101.927573,40.6891627 L104.264573,35.6256627 L100.123573,26.2161627 L102.173573,26.2161627 Z M26.7715197,27.2547565 C27.9143546,28.0620474 28.7109677,29.3308633 28.9534331,30.7148887 C29.2651154,32.3180594 28.8725196,34.0710848 27.8335787,35.3399008 C26.7138619,36.758434 24.8783079,37.5196685 23.0888527,37.4043216 C21.4495278,37.3120716 19.8564393,36.4932323 18.8867153,35.1552632 C17.7901166,33.6789879 17.5245331,31.6490748 18.1247794,29.9190088 C18.7251634,28.0620474 20.422146,26.6435142 22.3384759,26.3090219 C23.8623476,26.0205859 25.5132315,26.3435297 26.7715197,27.2547565 Z M9.085581,20 C11.2098367,20.0461938 13.2992775,20.8996783 14.800031,22.410599 C14.2458834,22.9757851 13.6803142,23.5178743 13.1377256,24.0829229 C12.2950138,23.3218258 11.2790535,22.7335429 10.1707582,22.5259459 C8.53157094,22.1799052 6.76523384,22.4913006 5.39149255,23.4256243 C3.89073902,24.4058668 2.87477869,26.0667797 2.65543144,27.842902 C2.41310364,29.5960649 2.90945593,31.4414779 4.05229089,32.8024064 C5.14902715,34.128827 6.82302923,34.9592148 8.55455148,35.0169569 C10.0856947,35.1043517 11.679084,34.6637584 12.8437707,33.6561338 L13.0338315,33.4829394 C13.9573192,32.6870595 14.3844547,31.4761232 14.523026,30.2996948 L10.6903255,30.3047663 C10.0515284,30.3047663 9.41272123,30.3034985 8.77389874,30.2996948 L8.77389874,27.9237411 L16.8433731,27.9237411 C17.2589495,30.4726464 16.6587031,33.3444956 14.7192551,35.1668117 C13.4262897,36.458587 11.6369721,37.2198216 9.81297722,37.3698138 C8.04664012,37.5427654 6.22264525,37.2082731 4.65267486,36.3547886 C2.77088461,35.3514492 1.27013107,33.655891 0.531313384,31.6606233 C-0.161267995,29.8267588 -0.172827073,27.750652 0.473655606,25.905239 C1.0623429,24.2213667 2.19375639,22.7335429 3.64827361,21.6955582 C5.04513306,20.6689845 6.74211569,20.1037985 8.47377555,20 L9.085581,20 Z M39.5279247,27.6814988 C41.6521803,29.5845165 41.8829491,33.1484471 40.0705133,35.3399008 C38.973777,36.7239261 37.1960185,37.4851607 35.4412404,37.4043216 C33.767376,37.3582654 32.116492,36.5278776 31.1236499,35.1552632 C30.0039331,33.6443426 29.7614676,31.5683733 30.3963912,29.8036619 C31.0313148,28.0044427 32.6937579,26.6319657 34.5754105,26.3090219 C36.3186294,25.9745296 38.2234002,26.4588766 39.5279247,27.6814988 Z M65.502685,26.5166188 C67.1881086,27.1509581 68.2617267,28.7541288 68.8043153,30.4034933 L61.3005476,33.5060363 L61.3005476,33.5060363 C61.6469071,34.1634724 62.1779366,34.7631663 62.8936361,35.0054085 C63.8980374,35.3628602 65.0985301,35.2361023 65.9413795,34.5671178 C66.2761799,34.3133271 66.5416259,33.9788348 66.7956504,33.655891 L68.7004212,34.9245694 C67.799914,36.274087 66.2876014,37.2198216 64.6599732,37.3698138 C62.8589589,37.5889592 60.942629,36.8968778 59.7766759,35.4897555 C57.860346,33.2753424 58.045016,29.5614196 60.2038113,27.5661519 C61.5891117,26.2743766 63.7247888,25.8360859 65.502685,26.5166188 Z M57.2369815,20.5998314 L57.2369815,37.0699668 C56.4172503,37.0699668 55.5860976,37.0813778 54.7665039,37.0584184 C54.7779254,31.5799217 54.7665039,26.0898765 54.7665039,20.5998314 L57.2369815,20.5998314 Z M94.9706578,25.8881627 C96.3646647,25.8881627 97.4648204,26.2605757 98.2711578,27.0054127 C99.0774951,27.7502498 99.4806578,28.7718229 99.4806578,30.0701627 L99.4806578,36.2611627 L97.6766578,36.2611627 L97.6766578,34.8671627 L97.5946578,34.8671627 C96.8156539,36.0151685 95.7769976,36.5891627 94.4786578,36.5891627 C93.3716522,36.5891627 92.4457448,36.261166 91.7009078,35.6051627 C90.9560707,34.9491594 90.5836578,34.1291676 90.5836578,33.1451627 C90.5836578,32.1064909 90.9765705,31.2796658 91.7624078,30.6646627 C92.548245,30.0496596 93.5971512,29.7421627 94.9091578,29.7421627 C96.02983,29.7421627 96.9523208,29.9471607 97.6766578,30.3571627 L97.6766578,29.9266627 C97.6766578,29.2706594 97.4169937,28.7137483 96.8976578,28.2559127 C96.3783218,27.7980771 95.7701613,27.5691627 95.0731578,27.5691627 C94.0208192,27.5691627 93.1871609,28.0133249 92.5721578,28.9016627 L90.9116578,27.8561627 C91.827329,26.5441562 93.1803155,25.8881627 94.9706578,25.8881627 Z M81.179828,21.5831627 C82.4508343,21.5831627 83.5304902,22.0068252 84.418828,22.8541627 C85.3208325,23.7015003 85.771828,24.7333233 85.771828,25.9496627 C85.771828,27.1933356 85.3208325,28.2319919 84.418828,29.0656627 C83.5441569,29.8993336 82.4645011,30.3161627 81.179828,30.3161627 L78.063828,30.3161627 L78.063828,36.2611627 L76.177828,36.2611627 L76.177828,21.5831627 L81.179828,21.5831627 Z M89.1822429,21.5831627 L89.1822429,36.2611627 L87.2962429,36.2611627 L87.2962429,21.5831627 L89.1822429,21.5831627 Z M47.3435122,28.4542818 C46.6392342,28.5696287 45.9811924,28.9617257 45.5309388,29.5038149 C44.4458992,30.7955903 44.4458992,32.8601486 45.5424979,34.128827 C46.166,34.8785132 47.1702637,35.293707 48.1399877,35.1899086 C49.0520539,35.0976585 49.8947657,34.520924 50.3450193,33.7251816 C51.1069551,32.3756641 50.9799429,30.5417996 49.9524235,29.3653711 C49.3174999,28.6387819 48.3016772,28.2811927 47.3435122,28.4542818 Z M34.92177,28.5003381 C34.2984055,28.6618788 33.7211397,29.0193304 33.3055633,29.5153634 C32.1974056,30.8302356 32.2435043,32.9754955 33.4325755,34.2326255 C34.136716,34.9823116 35.2334523,35.3514492 36.2494126,35.1437148 C37.1497821,34.9707632 37.9579543,34.3710693 38.3966488,33.563641 C39.1470256,32.1796156 38.9276783,30.2881464 37.7501661,29.2155164 C36.9997894,28.523435 35.9030531,28.2466849 34.92177,28.5003381 Z M22.6848354,28.5003381 C22.0614709,28.6618788 21.4842051,29.0193304 21.0686287,29.5269118 C19.9487743,30.8647434 20.0181288,33.0446486 21.2532987,34.2902302 C21.9575768,35.0054085 23.0196358,35.3399008 24.0009189,35.1437148 C24.9128476,34.9823116 25.7094606,34.3710693 26.1481551,33.563641 C26.910091,32.191164 26.6907437,30.2996948 25.5247906,29.2270648 C24.7744138,28.5349834 23.6776776,28.2466849 22.6848354,28.5003381 Z M95.2166578,31.2591627 C94.4513206,31.2591627 93.8124103,31.4436609 93.2999078,31.8126627 C92.7874052,32.1816646 92.5311578,32.6394933 92.5311578,33.1861627 C92.5311578,33.6781652 92.7395724,34.0881611 93.1564078,34.4161627 C93.5732432,34.7441644 94.0618216,34.9081627 94.6221578,34.9081627 C95.4148284,34.9081627 96.1220713,34.6143323 96.7439078,34.0266627 C97.3657442,33.4389931 97.6766578,32.7488334 97.6766578,31.9561627 C97.0889882,31.4914937 96.2689964,31.2591627 95.2166578,31.2591627 Z M61.4391189,29.6998634 C61.0465231,30.2650495 60.8849712,30.9569934 60.8965303,31.6375264 C62.5703948,30.9455825 64.2442593,30.2535011 65.9182614,29.5500087 C65.6411187,28.904121 64.9716555,28.5118865 64.2904956,28.4080881 C63.1937593,28.2120396 62.0509244,28.8001851 61.4391189,29.6998634 Z M81.220828,23.3871627 L78.063828,23.3871627 L78.063828,28.5121627 L81.220828,28.5121627 C81.9724984,28.5121627 82.5943255,28.2593319 83.086328,27.7536627 C83.5919972,27.2479935 83.844828,26.6466662 83.844828,25.9496627 C83.844828,25.266326 83.5919972,24.6718319 83.086328,24.1661627 C82.5943255,23.6468268 81.9724984,23.3871627 81.220828,23.3871627 Z" id="Shape"></path>
                </g>
                <path d="M28,55.8955728 L28,4.11045866 C28,2.30337141 29.0476608,0.741319139 30.5679966,0 L60.5232113,29.9941818 L30.5559493,60 C29.0421239,59.2564267 28,57.6979994 28,55.8955728 Z M70.0266028,39.5095442 L37.2724845,58.4446189 L63.1048676,32.5788682 L70.0266028,39.5095442 Z M80.2078085,26.3725746 C81.2972394,27.2075334 82,28.5231799 82,30.0030157 C82,31.4606144 81.3185352,32.758593 80.257093,33.5950749 L73.2997634,37.6172552 L65.6862197,29.9941818 L73.2945915,22.3759213 L80.2078085,26.3725746 Z M37.2916811,1.56284428 L70.021431,20.4837542 L63.1048676,27.4091907 L37.2916811,1.56284428 Z" id="logo" fill-rule="nonzero"></path>
            </g>
        </g>
    </g>
</svg>