<?xml version="1.0" encoding="UTF-8"?>
<svg width="240px" height="80px" viewBox="0 0 240 80" version="1.1" xmlns="http://www.w3.org/2000/svg" xmlns:xlink="http://www.w3.org/1999/xlink">
    <!-- Generator: Sketch 59.1 (86144) - https://sketch.com -->
    <title>badge-google-play-grey</title>
    <desc>Created with Sketch.</desc>
    <g id="badge-google-play-grey" stroke="none" stroke-width="1" fill="none" fill-rule="evenodd">
        <g id="Google-Play">
            <rect id="Base" fill="#9E9F9E" x="0" y="0" width="240" height="80" rx="12"></rect>
            <g id="content" transform="translate(38.000000, 20.000000)" fill="#FFFFFF">
                <g id="Text" transform="translate(46.315853, 0.000000)">
                    <path d="M10.5710122,5.27329787 C10.5710122,6.58181505 10.1828246,7.62425144 9.40643772,8.4006383 C8.53409293,9.32532377 7.38697674,9.78765957 5.96505474,9.78765957 C4.60419687,9.78765957 3.45271902,9.31660046 2.51058665,8.37446809 C1.56845428,7.43233571 1.09739517,6.27213455 1.09739517,4.89382979 C1.09739517,3.51552502 1.56845428,2.35532386 2.51058665,1.41319149 C3.45271902,0.471059119 4.60419687,-1.77635684e-15 5.96505474,-1.77635684e-15 C6.65420712,-1.77635684e-15 7.30409424,0.122126438 7.91473559,0.366382979 C8.52537694,0.610639519 9.02696767,0.955210541 9.41952282,1.40010638 L8.5559058,2.2637234 C8.26803202,1.91478549 7.89511022,1.64218183 7.43712921,1.44590426 C6.97914819,1.24962668 6.48846161,1.15148936 5.96505474,1.15148936 C4.94441134,1.15148936 4.08080295,1.5047837 3.37420368,2.21138298 C2.67632785,2.9267057 2.32739517,3.8208457 2.32739517,4.89382979 C2.32739517,5.96681388 2.67632785,6.86095387 3.37420368,7.5762766 C4.08080295,8.28287587 4.94441134,8.63617021 5.96505474,8.63617021 C6.89846366,8.63617021 7.67483888,8.3744707 8.29420368,7.85106383 C8.91356847,7.32765696 9.27122447,6.6079833 9.3671824,5.69202128 L5.96505474,5.69202128 L5.96505474,4.56670213 L10.5055867,4.56670213 C10.5492039,4.81095867 10.5710122,5.04648823 10.5710122,5.27329787 Z M17.5061186,0.209361702 L17.5061186,1.36085106 L13.2403739,1.36085106 L13.2403739,4.33117021 L17.0873952,4.33117021 L17.0873952,5.45648936 L13.2403739,5.45648936 L13.2403739,8.42680851 L17.5061186,8.42680851 L17.5061186,9.57829787 L12.0365441,9.57829787 L12.0365441,0.209361702 L17.5061186,0.209361702 Z M22.3214377,1.36085106 L22.3214377,9.57829787 L21.1176079,9.57829787 L21.1176079,1.36085106 L18.5005867,1.36085106 L18.5005867,0.209361702 L24.938459,0.209361702 L24.938459,1.36085106 L22.3214377,1.36085106 Z M30.2771824,9.57829787 L29.0733526,9.57829787 L29.0733526,0.209361702 L30.2771824,0.209361702 L30.2771824,9.57829787 Z M35.3542037,1.36085106 L35.3542037,9.57829787 L34.1503739,9.57829787 L34.1503739,1.36085106 L31.5333526,1.36085106 L31.5333526,0.209361702 L37.971225,0.209361702 L37.971225,1.36085106 L35.3542037,1.36085106 Z M51.2787781,4.89382979 C51.2787781,6.280858 50.8164423,7.44105916 49.8917569,8.37446809 C48.9583479,9.31660046 47.8155934,9.78765957 46.463459,9.78765957 C45.1026011,9.78765957 43.9598466,9.31660046 43.0351611,8.37446809 C42.1104756,7.44105916 41.6481398,6.280858 41.6481398,4.89382979 C41.6481398,3.50680158 42.1104756,2.34660041 43.0351611,1.41319149 C43.9598466,0.471059119 45.1026011,-1.77635684e-15 46.463459,-1.77635684e-15 C47.8243169,-1.77635684e-15 48.9670714,0.475420778 49.8917569,1.4262766 C50.8164423,2.35968552 51.2787781,3.51552502 51.2787781,4.89382979 Z M42.8781398,4.89382979 C42.8781398,5.97553732 43.2183492,6.86967732 43.8987781,7.5762766 C44.5879305,8.28287587 45.4428156,8.63617021 46.463459,8.63617021 C47.4841024,8.63617021 48.3346258,8.28287587 49.0150547,7.5762766 C49.7042071,6.87840077 50.0487781,5.98426077 50.0487781,4.89382979 C50.0487781,3.8033988 49.7042071,2.90925881 49.0150547,2.21138298 C48.3346258,1.5047837 47.4841024,1.15148936 46.463459,1.15148936 C45.4428156,1.15148936 44.5879305,1.5047837 43.8987781,2.21138298 C43.2183492,2.91798226 42.8781398,3.81212225 42.8781398,4.89382979 Z M53.9088845,9.57829787 L52.7050547,9.57829787 L52.7050547,0.209361702 L54.1705867,0.209361702 L58.7242037,7.49776596 L58.7765441,7.49776596 L58.7242037,5.69202128 L58.7242037,0.209361702 L59.9280335,0.209361702 L59.9280335,9.57829787 L58.6718633,9.57829787 L53.9088845,1.93659574 L53.8565441,1.93659574 L53.9088845,3.74234043 L53.9088845,9.57829787 Z" id="GETITON" fill-rule="nonzero"></path>
                    <path d="M50.1633368,25.1430296 C50.6135904,25.3390781 50.9829304,25.6735703 51.340849,26.0080626 L51.3524081,25.0507795 L53.6843143,25.0621905 L53.6843143,35.23499 C53.6727552,36.7688701 53.280297,38.3951377 52.1720017,39.5139614 C50.9598123,40.7479945 49.1012778,41.1286805 47.4272757,40.8748899 C45.637958,40.6096882 44.0794091,39.3063644 43.3868277,37.657 C44.0794091,37.3225077 44.8068053,37.0573061 45.5225049,36.7459107 C45.9265221,37.6916453 46.7462534,38.4989361 47.7736352,38.6835737 C48.801017,38.8680737 49.9900882,38.614283 50.6596891,37.7607984 C51.3753886,36.884217 51.3753886,35.6848291 51.340849,34.6121992 C50.8098195,35.1311915 50.1978764,35.5924416 49.4590587,35.7655307 C47.8544111,36.2153699 46.0882116,35.6617323 44.852904,34.5775539 C43.606175,33.4933755 42.8673573,31.8210516 42.9365742,30.1601387 C42.9712514,28.2800804 44.0333104,26.4693127 45.637958,25.4889328 C46.9656006,24.6585451 48.7318001,24.4278513 50.1633368,25.1430296 Z M102.85772,24.7272266 L105.85072,31.9432266 L105.89172,31.9432266 L108.80272,24.7272266 L110.85272,24.7272266 L104.55922,39.2002266 L102.61172,39.2002266 L104.94872,34.1367266 L100.80772,24.7272266 L102.85772,24.7272266 Z M27.4556671,25.7658204 C28.5985021,26.5731112 29.3951151,27.8419271 29.6375805,29.2259525 C29.9492628,30.8291232 29.556667,32.5821487 28.5177261,33.8509646 C27.3980093,35.2694978 25.5624554,36.0307324 23.7730001,35.9153855 C22.1336753,35.8231354 20.5405867,35.0042962 19.5708627,33.6663271 C18.4742641,32.1900517 18.2086805,30.1601387 18.8089269,28.4300726 C19.4093108,26.5731112 21.1062935,25.154578 23.0226234,24.8200857 C24.546495,24.5316497 26.197379,24.8545936 27.4556671,25.7658204 Z M9.76972844,18.5110638 C11.8939841,18.5572576 13.9834249,19.4107422 15.4841785,20.9216629 C14.9300308,21.486849 14.3644617,22.0289382 13.8218731,22.5939867 C12.9791613,21.8328897 11.963201,21.2446067 10.8549056,21.0370098 C9.21571838,20.6909691 7.44938128,21.0023645 6.07563999,21.9366881 C4.57488646,22.9169306 3.55892613,24.5778435 3.33957888,26.3539658 C3.09725108,28.1071288 3.59360336,29.9525417 4.73643832,31.3134702 C5.83317458,32.6398909 7.50717667,33.4702786 9.23869892,33.5280208 C10.7698421,33.6154155 12.3632314,33.1748223 13.5279182,32.1671976 L13.717979,31.9940032 C14.6414667,31.1981233 15.0686021,29.9871871 15.2071734,28.8107586 L11.3744729,28.8158302 C10.7356759,28.8158302 10.0968687,28.8145623 9.45804617,28.8107586 L9.45804617,26.4348049 L17.5275206,26.4348049 C17.9430969,28.9837102 17.3428506,31.8555594 15.4034025,33.6778755 C14.1104372,34.9696508 12.3211195,35.7308854 10.4971247,35.8808776 C8.73078756,36.0538292 6.90679269,35.719337 5.3368223,34.8658524 C3.45503204,33.8625131 1.95427851,32.1669548 1.21546082,30.1716871 C0.522879442,28.3378226 0.511320365,26.2617158 1.15780304,24.4163028 C1.74649034,22.7324305 2.87790383,21.2446067 4.33242105,20.2066221 C5.7292805,19.1800484 7.42626313,18.6148623 9.15792299,18.5110638 L9.76972844,18.5110638 Z M40.2120721,26.1925627 C42.3363278,28.0955803 42.5670965,31.6595109 40.7546607,33.8509646 C39.6579245,35.23499 37.8801659,35.9962245 36.1253879,35.9153855 C34.4515234,35.8693292 32.8006395,35.0389415 31.8077973,33.6663271 C30.6880805,32.1554064 30.4456151,30.0794371 31.0805387,28.3147257 C31.7154623,26.5155065 33.3779053,25.1430296 35.2595579,24.8200857 C37.0027769,24.4855935 38.9075477,24.9699405 40.2120721,26.1925627 Z M66.1868324,25.0276827 C67.872256,25.6620219 68.9458741,27.2651926 69.4884627,28.9145571 L61.984695,32.0171001 L61.984695,32.0171001 C62.3310545,32.6745362 62.862084,33.2742301 63.5777836,33.5164723 C64.5821848,33.873924 65.7826776,33.7471661 66.6255269,33.0781816 C66.9603274,32.8243909 67.2257733,32.4898987 67.4797978,32.1669548 L69.3845686,33.4356333 C68.4840614,34.7851508 66.9717488,35.7308854 65.3441207,35.8808776 C63.5431063,36.100023 61.6267765,35.4079416 60.4608233,34.0008193 C58.5444935,31.7864063 58.7291635,28.0724835 60.8879588,26.0772158 C62.2732591,24.7854404 64.4089363,24.3471497 66.1868324,25.0276827 Z M57.9211289,19.1108952 L57.9211289,35.5810307 C57.1013977,35.5810307 56.270245,35.5924416 55.4506514,35.5694822 C55.4620729,30.0909855 55.4506514,24.6009404 55.4506514,19.1108952 L57.9211289,19.1108952 Z M95.6548052,24.3992266 C97.0488122,24.3992266 98.1489678,24.7716395 98.9553052,25.5164766 C99.7616426,26.2613136 100.164805,27.2828867 100.164805,28.5812266 L100.164805,34.7722266 L98.3608052,34.7722266 L98.3608052,33.3782266 L98.2788052,33.3782266 C97.4998013,34.5262323 96.461145,35.1002266 95.1628052,35.1002266 C94.0557997,35.1002266 93.1298923,34.7722298 92.3850552,34.1162266 C91.6402182,33.4602233 91.2678052,32.6402315 91.2678052,31.6562266 C91.2678052,30.6175547 91.660718,29.7907296 92.4465552,29.1757266 C93.2323925,28.5607235 94.2812987,28.2532266 95.5933052,28.2532266 C96.7139775,28.2532266 97.6364683,28.4582245 98.3608052,28.8682266 L98.3608052,28.4377266 C98.3608052,27.7817233 98.1011411,27.2248122 97.5818052,26.7669766 C97.0624693,26.3091409 96.4543087,26.0802266 95.7573052,26.0802266 C94.7049666,26.0802266 93.8713083,26.5243888 93.2563052,27.4127266 L91.5958052,26.3672266 C92.5114765,25.05522 93.8644629,24.3992266 95.6548052,24.3992266 Z M81.8639754,20.0942266 C83.1349818,20.0942266 84.2146377,20.517889 85.1029754,21.3652266 C86.0049799,22.2125641 86.4559754,23.2443871 86.4559754,24.4607266 C86.4559754,25.7043994 86.0049799,26.7430557 85.1029754,27.5767266 C84.2283044,28.4103974 83.1486485,28.8272266 81.8639754,28.8272266 L78.7479754,28.8272266 L78.7479754,34.7722266 L76.8619754,34.7722266 L76.8619754,20.0942266 L81.8639754,20.0942266 Z M89.8663903,20.0942266 L89.8663903,34.7722266 L87.9803903,34.7722266 L87.9803903,20.0942266 L89.8663903,20.0942266 Z M48.0276597,26.9653457 C47.3233816,27.0806926 46.6653398,27.4727896 46.2150863,28.0148788 C45.1300467,29.3066541 45.1300467,31.3712124 46.2266453,32.6398909 C46.8501475,33.389577 47.8544111,33.8047709 48.8241351,33.7009724 C49.7362014,33.6087224 50.5789131,33.0319879 51.0291667,32.2362454 C51.7911026,30.8867279 51.6640903,29.0528634 50.6365709,27.876435 C50.0016473,27.1498457 48.9858246,26.7922566 48.0276597,26.9653457 Z M35.6059174,27.0114019 C34.9825529,27.1729426 34.4052871,27.5303943 33.9897107,28.0264272 C32.881553,29.3412994 32.9276517,31.4865593 34.116723,32.7436893 C34.8208634,33.4933755 35.9175997,33.8625131 36.93356,33.6547786 C37.8339296,33.481827 38.6421017,32.8821331 39.0807962,32.0747048 C39.831173,30.6906794 39.6118258,28.7992102 38.4343136,27.7265802 C37.6839368,27.0344988 36.5872005,26.7577487 35.6059174,27.0114019 Z M23.3689828,27.0114019 C22.7456183,27.1729426 22.1683525,27.5303943 21.7527761,28.0379756 C20.6329217,29.3758072 20.7022762,31.5557125 21.9374462,32.801294 C22.6417242,33.5164723 23.7037833,33.8509646 24.6850664,33.6547786 C25.596995,33.4933755 26.3936081,32.8821331 26.8323026,32.0747048 C27.5942384,30.7022279 27.3748912,28.8107586 26.208938,27.7381287 C25.4585613,27.0460473 24.361825,26.7577487 23.3689828,27.0114019 Z M95.9008052,29.7702266 C95.1354681,29.7702266 94.4965578,29.9547247 93.9840552,30.3237266 C93.4715527,30.6927284 93.2153052,31.1505572 93.2153052,31.6972266 C93.2153052,32.189229 93.4237198,32.5992249 93.8405552,32.9272266 C94.2573906,33.2552282 94.7459691,33.4192266 95.3063052,33.4192266 C96.0989758,33.4192266 96.8062188,33.1253962 97.4280552,32.5377266 C98.0498917,31.9500569 98.3608052,31.2598972 98.3608052,30.4672266 C97.7731356,30.0025576 96.9531438,29.7702266 95.9008052,29.7702266 Z M62.1232663,28.2109272 C61.7306705,28.7761133 61.5691187,29.4680573 61.5806778,30.1485902 C63.2545422,29.4566463 64.9284067,28.7645649 66.6024088,28.0610725 C66.3252662,27.4151848 65.6558029,27.0229504 64.974643,26.9191519 C63.8779068,26.7231034 62.7350718,27.3112489 62.1232663,28.2109272 Z M81.9049754,21.8982266 L78.7479754,21.8982266 L78.7479754,27.0232266 L81.9049754,27.0232266 C82.6566459,27.0232266 83.278473,26.7703957 83.7704754,26.2647266 C84.2761446,25.7590574 84.5289754,25.15773 84.5289754,24.4607266 C84.5289754,23.7773898 84.2761446,23.1828957 83.7704754,22.6772266 C83.278473,22.1578906 82.6566459,21.8982266 81.9049754,21.8982266 Z" id="Shape"></path>
                </g>
                <path d="M0,37.0818058 L0,3.14809798 C0,1.9639513 0.686510353,0.940370947 1.68275475,0.45459994 L21.3117836,20.1091632 L1.67486039,39.7713515 C0.682882137,39.2841034 0,38.2628984 0,37.0818058 Z M27.5391584,26.3443822 L6.07606616,38.7521426 L23.0034893,21.8028544 L27.5391584,26.3443822 Z M34.2106906,17.7359993 C34.924572,18.2831305 35.3850764,19.1452463 35.3850764,20.1149519 C35.3850764,21.0700859 34.9385267,21.9206243 34.2429857,22.4687535 L29.6839924,25.1044046 L24.6949956,20.1091632 L29.6806034,15.1170756 L34.2106906,17.7359993 Z M6.08864531,1.47869928 L27.5357694,13.8771779 L23.0034893,18.4152723 L6.08864531,1.47869928 Z" id="logo" fill-rule="nonzero"></path>
            </g>
        </g>
    </g>
</svg>